劍王
劍二
劍三
劍四
劍五
劍六
劍七
劍八
劍九
劍十
劍侍
劍騎
劍王
劍國
杖王
杖二
杖三
杖四
杖五
杖六
杖七
杖八
杖九
杖十
杖侍
杖騎
杖王
杖國
杯王
杯二
杯三
杯四
杯五
杯六
杯七
杯八
杯九
杯十
杯侍
杯騎
杯王
杯國
幣王
幣二
幣三
幣四
幣五
幣六
幣七
幣八
幣九
幣十
幣侍
幣騎
幣王
幣國
